{
  "query" : {
    "simple_query_string" : {
      "fields": ["product_title"],
      "query": "tokyo",
      "default_operator": "and"
    }
  }
}

/* sample query for rails console
Film.search(query: { "simple_query_string": { "fields": ["product_title"], "query": "tokyo", "default_operator": "and"}}).records.first
Film.search(query: { "simple_query_string": { "fields": ["main_actor"], "query": "大迫裕", "default_operator": "and"}}).records.first

*/
